Capítulo 7 Manipulação e formatação de dados | Introdução ao Ambiente R de Programação
…
Observação: a função unite() *exclui as colunas que foram unificadas da tabela.

7.1.7 Reformatando tabelas: funções spread() e gather()

Importe a tabela HubbardBrook.csv com dados anuais de vazão e precipitação em dois riachos de áreas desmatadas e referência. Os dados foram retirados de tiee.esa.org e podem ser obtidos em HubbardBrook.csv.

## # A tibble: 62 x 4
##     Year Treatment   Flow Precipitation
##    <dbl> <chr>      <dbl>         <dbl>
##  1  1958 Deforested  645.         1168.
##  2  1959 Deforested 1012.         1483.
##  3  1960 Deforested  825.         1321.
##  4  1961 Deforested  470.          980.
##  5  1962 Deforested  777.         1232.
##  6  1963 Deforested  774.         1139.
##  7  1964 Deforested  712.         1175.
##  8  1965 Deforested  599.         1115.
##  9  1966 Deforested 1189.         1222.
## 10  1967 Deforested 1132.         1315.
## # ... with 52 more rows

stream <- read_csv("C:/seu_caminho/IntroR/HubbardBrook.csv")
stream

A função spread() reorganiza dados do formato longo para o formato largo. Vamos vazer isto abaixo somente para a variável Flow e excluindo Precipitation.

stream_largo <- stream %>% 
  select(-Precipitation) %>% 
  spread(key = Treatment, value = Flow)
stream_largo

## # A tibble: 31 x 3
##     Year Deforested Reference
##    <dbl>      <dbl>     <dbl>
##  1  1958       645.      567.
##  2  1959      1012.      918.
##  3  1960       825.      752.
##  4  1961       470.      436.
##  5  1962       777.      699.
##  6  1963       774.      663.
##  7  1964       712.      630.
##  8  1965       599.      547.
##  9  1966      1189.      727.
## 10  1967      1132.      781.
## # ... with 21 more rows

Enquanto a função gather() faz o caminho reverso.

stream_longo <- stream_largo %>% 
  gather(key = Desmatamento, value = Flow, -Year)
stream_longo

## # A tibble: 62 x 3
##     Year Desmatamento  Flow
##    <dbl> <chr>        <dbl>
##  1  1958 Deforested    645.
##  2  1959 Deforested   1012.
##  3  1960 Deforested    825.
##  4  1961 Deforested    470.
##  5  1962 Deforested    777.
##  6  1963 Deforested    774.
##  7  1964 Deforested    712.
##  8  1965 Deforested    599.
##  9  1966 Deforested   1189.
## 10  1967 Deforested   1132.
## # ... with 52 more rows
